hw2/transcript
# //  Questa Sim-64
# //  Version 2021.3_1 linux_x86_64 Aug 15 2021
# //
# //  Copyright 1991-2021 Mentor Graphics Corporation
# //  All Rights Reserved.
# //
# //  QuestaSim and its associated documentation contain trade
# //  secrets and commercial or financial information that are the property of
# //  Mentor Graphics Corporation and are privileged, confidential,
# //  and exempt from disclosure under the Freedom of Information Act,
# //  5 U.S.C. Section 552. Furthermore, this information
# //  is prohibited from disclosure under the Trade Secrets Act,
# //  18 U.S.C. Section 1905.
# //
# do run.do
# QuestaSim-64 vlog 2021.3_1 Compiler 2021.08 Aug 15 2021
# Start time: 21:54:21 on Mar 09,2026
# vlog -reportprogress 300 hw2.sv 
# -- Compiling module hw2
# 
# Top level modules:
# 	hw2
# End time: 21:54:21 on Mar 09,2026, Elapsed time: 0:00:00
# Errors: 0, Warnings: 0
# QuestaSim-64 vlog 2021.3_1 Compiler 2021.08 Aug 15 2021
# Start time: 21:54:21 on Mar 09,2026
# vlog -reportprogress 300 hw2_tb.sv 
# -- Compiling module hw2_tb
# 
# Top level modules:
# 	hw2_tb
# End time: 21:54:21 on Mar 09,2026, Elapsed time: 0:00:00
# Errors: 0, Warnings: 0
# QuestaSim-64 vopt 2021.3_1 Compiler 2021.08 Aug 15 2021
# Start time: 21:54:22 on Mar 09,2026
# vopt -reportprogress 300 work.hw2_tb -o hw2_tb_opt "+acc" 
# 
# Top level modules:
# 	hw2_tb
# 
# Analyzing design...
# -- Loading module hw2_tb
# -- Loading module hw2
# Incremental compilation check found no design-units have changed.
# Optimized design name is hw2_tb_opt
# End time: 21:54:22 on Mar 09,2026, Elapsed time: 0:00:00
# Errors: 0, Warnings: 0
# vsim hw2_tb_opt 
# Start time: 21:54:22 on Mar 09,2026
# Loading sv_std.std
# Loading work.hw2_tb(fast)
# Loading work.hw2(fast)
# .main_pane.wave.interior.cs.body.pw.wf
# === SLIDE 12 : Switching Activity on o2 ===
# t=  0  a=1 b=1 c=0 d=0 | o1=x o2=x f=x | o1_r=1 o2_r=0 f_r=0
# t=1000  a=1 b=1 c=0 d=0 | o1=1 o2=0 f=0 | o1_r=1 o2_r=0 f_r=0
# --- Slide 12 Glitch 1 ---
# t=10000  a=0 b=0 c=1 d=0 | o1=1 o2=0 f=0 | o1_r=0 o2_r=0 f_r=0
# t=11000  a=0 b=0 c=1 d=0 | o1=0 o2=1 f=0 | o1_r=0 o2_r=0 f_r=0
# t=12000  a=0 b=0 c=1 d=0 | o1=0 o2=0 f=0 | o1_r=0 o2_r=0 f_r=0
# t=20000  a=1 b=1 c=0 d=0 | o1=0 o2=0 f=0 | o1_r=1 o2_r=0 f_r=0
# t=21000  a=1 b=1 c=0 d=0 | o1=1 o2=0 f=0 | o1_r=1 o2_r=0 f_r=0
# --- Slide 12 Glitch 2 ---
# t=30000  a=0 b=1 c=1 d=0 | o1=1 o2=0 f=0 | o1_r=0 o2_r=0 f_r=0
# t=31000  a=0 b=1 c=1 d=0 | o1=0 o2=1 f=0 | o1_r=0 o2_r=0 f_r=0
# t=32000  a=0 b=1 c=1 d=0 | o1=0 o2=0 f=0 | o1_r=0 o2_r=0 f_r=0
# t=40000  a=1 b=1 c=0 d=0 | o1=0 o2=0 f=0 | o1_r=1 o2_r=0 f_r=0
# t=41000  a=1 b=1 c=0 d=0 | o1=1 o2=0 f=0 | o1_r=1 o2_r=0 f_r=0
# --- Slide 12 Glitch 3 ---
# t=50000  a=1 b=0 c=1 d=0 | o1=1 o2=0 f=0 | o1_r=0 o2_r=0 f_r=0
# t=51000  a=1 b=0 c=1 d=0 | o1=0 o2=1 f=0 | o1_r=0 o2_r=0 f_r=0
# t=52000  a=1 b=0 c=1 d=0 | o1=0 o2=0 f=0 | o1_r=0 o2_r=0 f_r=0
# t=60000  a=1 b=1 c=0 d=0 | o1=0 o2=0 f=0 | o1_r=1 o2_r=0 f_r=0
# t=61000  a=1 b=1 c=0 d=0 | o1=1 o2=0 f=0 | o1_r=1 o2_r=0 f_r=0
# === SLIDE 13 : Switching Activity on f ===
# t=70000  a=1 b=1 c=1 d=0 | o1=1 o2=0 f=0 | o1_r=1 o2_r=1 f_r=0
# t=71000  a=1 b=1 c=1 d=0 | o1=1 o2=1 f=0 | o1_r=1 o2_r=1 f_r=0
# --- Slide 13 Glitch 1 ---
# t=80000  a=0 b=0 c=0 d=1 | o1=1 o2=1 f=0 | o1_r=0 o2_r=0 f_r=0
# t=81000  a=0 b=0 c=0 d=1 | o1=0 o2=0 f=1 | o1_r=0 o2_r=0 f_r=0
# t=82000  a=0 b=0 c=0 d=1 | o1=0 o2=0 f=0 | o1_r=0 o2_r=0 f_r=0
# t=90000  a=1 b=1 c=1 d=0 | o1=0 o2=0 f=0 | o1_r=1 o2_r=1 f_r=0
# t=91000  a=1 b=1 c=1 d=0 | o1=1 o2=0 f=0 | o1_r=1 o2_r=1 f_r=0
# t=92000  a=1 b=1 c=1 d=0 | o1=1 o2=1 f=0 | o1_r=1 o2_r=1 f_r=0
# --- Slide 13 Glitch 2 ---
# t=100000  a=1 b=0 c=0 d=1 | o1=1 o2=1 f=0 | o1_r=0 o2_r=0 f_r=0
# t=101000  a=1 b=0 c=0 d=1 | o1=0 o2=0 f=1 | o1_r=0 o2_r=0 f_r=0
# t=102000  a=1 b=0 c=0 d=1 | o1=0 o2=0 f=0 | o1_r=0 o2_r=0 f_r=0
# t=110000  a=1 b=1 c=1 d=0 | o1=0 o2=0 f=0 | o1_r=1 o2_r=1 f_r=0
# t=111000  a=1 b=1 c=1 d=0 | o1=1 o2=0 f=0 | o1_r=1 o2_r=1 f_r=0
# t=112000  a=1 b=1 c=1 d=0 | o1=1 o2=1 f=0 | o1_r=1 o2_r=1 f_r=0
# --- Slide 13 Glitch 3 ---
# t=120000  a=0 b=1 c=0 d=1 | o1=1 o2=1 f=0 | o1_r=0 o2_r=0 f_r=0
# t=121000  a=0 b=1 c=0 d=1 | o1=0 o2=0 f=1 | o1_r=0 o2_r=0 f_r=0
# t=122000  a=0 b=1 c=0 d=1 | o1=0 o2=0 f=0 | o1_r=0 o2_r=0 f_r=0
# t=130000  a=1 b=1 c=1 d=0 | o1=0 o2=0 f=0 | o1_r=1 o2_r=1 f_r=0
# t=131000  a=1 b=1 c=1 d=0 | o1=1 o2=0 f=0 | o1_r=1 o2_r=1 f_r=0
# t=132000  a=1 b=1 c=1 d=0 | o1=1 o2=1 f=0 | o1_r=1 o2_r=1 f_r=0
# --- Slide 13 Glitch 4 ---
# t=140000  a=1 b=1 c=0 d=1 | o1=1 o2=1 f=0 | o1_r=1 o2_r=0 f_r=0
# t=141000  a=1 b=1 c=0 d=1 | o1=1 o2=0 f=1 | o1_r=1 o2_r=0 f_r=0
# t=142000  a=1 b=1 c=0 d=1 | o1=1 o2=0 f=0 | o1_r=1 o2_r=0 f_r=0
# t=150000  a=1 b=1 c=1 d=0 | o1=1 o2=0 f=0 | o1_r=1 o2_r=1 f_r=0
# t=151000  a=1 b=1 c=1 d=0 | o1=1 o2=1 f=0 | o1_r=1 o2_r=1 f_r=0
# --- Slide 13 Glitch 5 ---
# t=160000  a=0 b=0 c=1 d=1 | o1=1 o2=1 f=0 | o1_r=0 o2_r=0 f_r=0
# t=161000  a=0 b=0 c=1 d=1 | o1=0 o2=1 f=1 | o1_r=0 o2_r=0 f_r=0
# t=162000  a=0 b=0 c=1 d=1 | o1=0 o2=0 f=1 | o1_r=0 o2_r=0 f_r=0
# t=163000  a=0 b=0 c=1 d=1 | o1=0 o2=0 f=0 | o1_r=0 o2_r=0 f_r=0
# t=170000  a=1 b=1 c=1 d=0 | o1=0 o2=0 f=0 | o1_r=1 o2_r=1 f_r=0
# t=171000  a=1 b=1 c=1 d=0 | o1=1 o2=0 f=0 | o1_r=1 o2_r=1 f_r=0
# t=172000  a=1 b=1 c=1 d=0 | o1=1 o2=1 f=0 | o1_r=1 o2_r=1 f_r=0
# --- Slide 13 Glitch 6 ---
# t=180000  a=1 b=0 c=1 d=1 | o1=1 o2=1 f=0 | o1_r=0 o2_r=0 f_r=0
# t=181000  a=1 b=0 c=1 d=1 | o1=0 o2=1 f=1 | o1_r=0 o2_r=0 f_r=0
# t=182000  a=1 b=0 c=1 d=1 | o1=0 o2=0 f=1 | o1_r=0 o2_r=0 f_r=0
# t=183000  a=1 b=0 c=1 d=1 | o1=0 o2=0 f=0 | o1_r=0 o2_r=0 f_r=0
# t=190000  a=1 b=1 c=1 d=0 | o1=0 o2=0 f=0 | o1_r=1 o2_r=1 f_r=0
# t=191000  a=1 b=1 c=1 d=0 | o1=1 o2=0 f=0 | o1_r=1 o2_r=1 f_r=0
# t=192000  a=1 b=1 c=1 d=0 | o1=1 o2=1 f=0 | o1_r=1 o2_r=1 f_r=0
# --- Slide 13 Glitch 7 ---
# t=200000  a=0 b=1 c=1 d=1 | o1=1 o2=1 f=0 | o1_r=0 o2_r=0 f_r=0
# t=201000  a=0 b=1 c=1 d=1 | o1=0 o2=1 f=1 | o1_r=0 o2_r=0 f_r=0
# t=202000  a=0 b=1 c=1 d=1 | o1=0 o2=0 f=1 | o1_r=0 o2_r=0 f_r=0
# t=203000  a=0 b=1 c=1 d=1 | o1=0 o2=0 f=0 | o1_r=0 o2_r=0 f_r=0
# t=210000  a=1 b=1 c=1 d=0 | o1=0 o2=0 f=0 | o1_r=1 o2_r=1 f_r=0
# t=211000  a=1 b=1 c=1 d=0 | o1=1 o2=0 f=0 | o1_r=1 o2_r=1 f_r=0
# t=212000  a=1 b=1 c=1 d=0 | o1=1 o2=1 f=0 | o1_r=1 o2_r=1 f_r=0
# === Simulation complete. $stop called. ===
# ** Note: $stop    : hw2_tb.sv(162)
#    Time: 220 ns  Iteration: 0  Instance: /hw2_tb
# Break in Module hw2_tb at hw2_tb.sv line 162
# 0 ps
# 231 ns
# Causality operation skipped due to absence of debug database file
# End time: 22:00:23 on Mar 09,2026, Elapsed time: 0:06:01
# Errors: 0, Warnings: 0
