project_3/upf_project/run/sim_out.vcd
$date
	Tue Mar 10 19:12:47 2026
$end
$version
	QuestaSim Version 2021.3_1
$end
$timescale
	1ns
$end

$scope module tb_top $end
$var reg 1 ! clk $end
$var reg 1 " rst_n $end
$var reg 1 # pwr_en $end
$var reg 1 $ iso_ctrl $end
$var reg 1 % save_ctrl $end
$var reg 1 & restore_ctrl $end
$var reg 1 ' status $end
$var reg 1 ( out $end

$scope module dut $end
$var wire 1 ) clk $end
$var wire 1 * rst_n $end
$var wire 1 + pwr_en $end
$var wire 1 , iso_ctrl $end
$var wire 1 - save_ctrl $end
$var wire 1 . restore_ctrl $end
$var reg 1 / out $end
$var reg 1 0 d_block $end
$var wire 1 1 u_block_d_pre_iso $end
$var wire 1 2 u_block_d_back_to_back_1 $end
$var wire 1 3 u_block_d_back_to_back_2 $end
$var reg 64 4 VSS [63:0] $end
$var reg 64 5 VDD_PG [63:0] $end
$var reg 64 6 VDD_AO [63:0] $end
$var reg 64 7 VDD_BLOCK [63:0] $end
$var reg 192 8 PD_BLOCK [191:0] $end
$var reg 192 9 PD_TOP [191:0] $end

$scope module u_block $end
$var wire 1 ) clk $end
$var wire 1 * rst_n $end
$var reg 1 : d $end
$upscope $end

$scope module d_UPF_LS $end
$var wire 1 ; internal_supply $end
$var wire 1 3 ls_input $end
$var reg 1 < ls_output $end
$upscope $end

$scope module d_UPF_ISO $end
$var parameter 32 = chkid $end
$var wire 1 1 isolation_input $end
$var reg 1 > isolation_output $end
$var wire 1 ? clamp_value $end
$var wire 1 @ bit_type $end
$var wire 1 A clamp_latch $end
$var wire 1 B power $end
$var wire 1 C isolation_signal $end
$var wire 1 D sink_pwr $end
$var integer 32 E portid $end
$var integer 32 F pdid $end
$var wire 1 G cctrl [4] $end
$var wire 1 H cctrl [3] $end
$var wire 1 I cctrl [2] $end
$var wire 1 J cctrl [1] $end
$var wire 1 K cctrl [0] $end
$upscope $end

$scope begin PS_BLOCK $end
$var reg 64 L vout [63:0] $end
$var reg 64 M vin [63:0] $end
$upscope $end
$upscope $end
$upscope $end
$enddefinitions $end
#0
$dumpvars
0!
x"
x#
x$
x%
x&
1'
x(
x/
x0
x:
x<
x>
b1100000000000000000000000000000000 4
b1100000000000011000011010100000000 5
b1100000000000011110100001001000000 6
b100000000000000000000000000000000 7
b1000000000000000000000000000000000000000000000000000000000000001100000000000000000000000000000000 8
b1010000000000000000000000000000010100000000000000000000000000000011000000000000111101000010010000000000000000000000000000000000001100000000000000000000000000000000 9
b100000000000000000000000000000000 L
b1100000000000011110100001001000000 M
b0 =
b0 E
b0 F
1B
x1
x2
x3
x.
x-
x,
x+
x*
0)
1G
1H
1I
1J
1K
1D
xC
0A
0@
0?
1;
$end
#5
1!
1)
#10
0!
0)
0"
1#
0$
0%
0&
1+
0,
0-
0.
0*
0C
b1100000000000011110100001001000000 7
b1100000000000011110100001001000000 L
b11000000000000111101000010010000000000000000000000000000000000001100000000000000000000000000000000 8
b1010000000000000000000000000000000000000000000000000000000000000011000000000000111101000010010000000000000000000000000000000000001100000000000000000000000000000000 8
b1010000000000000000000000000000010100000000000000000000000000000011000000000000111101000010010000000000000000000000000000000000001100000000000000000000000000000000 8
0:
01
0>
03
0<
02
00
0/
0(
#15
1!
1)
#20
0!
0)
#25
1!
1)
#30
0!
0)
#35
1!
1)
#40
0!
0)
#45
1!
1)
#50
0!
0)
#55
1!
1)
#60
0!
0)
1"
1*
#65
1!
1)
1:
11
1>
13
1<
12
10
1/
1(
#70
0!
0)
#75
1!
1)
0:
01
0>
03
0<
02
00
0/
0(
#80
0!
0)
#85
1!
1)
1:
11
1>
13
1<
12
10
1/
1(
#90
0!
0)
#95
1!
1)
0:
01
0>
03
0<
02
00
0/
0(
#100
0!
0)
#105
1!
1)
1:
11
1>
13
1<
12
10
1/
1(
#110
0!
0)
#115
1!
1)
0:
01
0>
03
0<
02
00
0/
0(
#120
0!
0)
1%
1-
#125
1!
1)
1:
11
1>
13
1<
12
10
1/
1(
#130
0!
0)
0%
0-
#135
1!
1)
0:
01
0>
03
0<
02
00
0/
0(
#140
0!
0)
1$
1,
1C
#145
1!
1)
1:
11
#150
0!
0)
0#
0+
b0 7
b0 L
b1010000000000000000000000000000010100000000000000000000000000000000000000000000000000000000000000000000000000000000000000000000001100000000000000000000000000000000 8
b10100000000000000000000000000000000000000000000000000000000000000000000000000000000000000000000001100000000000000000000000000000000 8
b1100000000000000000000000000000000 8
x:
x1
#155
1!
1)
#160
0!
0)
#165
1!
1)
#170
0!
0)
#175
1!
1)
#180
0!
0)
#185
1!
1)
#190
0!
0)
#195
1!
1)
#200
0!
0)
#205
1!
1)
#210
0!
0)
#215
1!
1)
#220
0!
0)
#225
1!
1)
#230
0!
0)
#235
1!
1)
#240
0!
0)
#245
1!
1)
#250
0!
0)
#255
1!
1)
#260
0!
0)
1#
1+
b1100000000000011110100001001000000 7
b1100000000000011110100001001000000 L
b11000000000000111101000010010000000000000000000000000000000000001100000000000000000000000000000000 8
b1010000000000000000000000000000000000000000000000000000000000000011000000000000111101000010010000000000000000000000000000000000001100000000000000000000000000000000 8
b1010000000000000000000000000000010100000000000000000000000000000011000000000000111101000010010000000000000000000000000000000000001100000000000000000000000000000000 8
#265
1!
1)
#270
0!
0)
#275
1!
1)
#280
0!
0)
1&
1.
0:
01
#285
1!
1)
1:
11
#290
0!
0)
0&
0.
#295
1!
1)
0:
01
#300
0!
0)
0$
0,
0C
#305
1!
1)
1:
11
1>
13
1<
12
10
1/
1(
#310
0!
0)
#315
1!
1)
0:
01
0>
03
0<
02
00
0/
0(
#320
0!
0)
#325
1!
1)
1:
11
1>
13
1<
12
10
1/
1(
#330
0!
0)
#335
1!
1)
0:
01
0>
03
0<
02
00
0/
0(
#340
0!
0)
#345
1!
1)
1:
11
1>
13
1<
12
10
1/
1(
#350
0!
0)
#355
1!
1)
0:
01
0>
03
0<
02
00
0/
0(
#360
0!
0)
#365
1!
1)
1:
11
1>
13
1<
12
10
1/
1(
#370
0!
0)
#375
1!
1)
0:
01
0>
03
0<
02
00
0/
0(
#380
0!
0)
#385
1!
1)
1:
11
1>
13
1<
12
10
1/
1(
#390
0!
0)
#395
1!
1)
0:
01
0>
03
0<
02
00
0/
0(
